{"page":1,"per_page":15,"photos":[{"id":12328370,"width":3575,"height":5363,"url":"https://www.pexels.com/photo/woman-in-gray-coat-standing-on-brown-concrete-floor-12328370/","photographer":"Julian Bracero","photographer_url":"https://www.pexels.com/@julian-bracero-233480546","photographer_id":233480546,"avg_color":"#7F776A","src":{"original":"https://images.pexels.com/photos/12328370/pexels-photo-12328370.jpeg","large2x":"https://images.pexels.com/photos/12328370/pexels-photo-12328370.jpeg?auto=compress\u0026cs=tinysrgb\u0026dpr=2\u0026h=650\u0026w=940","large":"https://images.pexels.com/photos/12328370/pexels-photo-12328370.jpeg?auto=compress\u0026cs=tinysrgb\u0026h=650\u0026w=940","medium":"https://images.pexels.com/photos/12328370/pexels-photo-12328370.jpeg?auto=compress\u0026cs=tinysrgb\u0026h=350","small":"https://images.pexels.com/photos/12328370/pexels-photo-12328370.jpeg?auto=compress\u0026cs=tinysrgb\u0026h=130","portrait":"https://images.pexels.com/photos/12328370/pexels-photo-12328370.jpeg?auto=compress\u0026cs=tinysrgb\u0026fit=crop\u0026h=1200\u0026w=800","landscape":"https://images.pexels.com/photos/12328370/pexels-photo-12328370.jpeg?auto=compress\u0026cs=tinysrgb\u0026fit=crop\u0026h=627\u0026w=1200","tiny":"https://images.pexels.com/photos/12328370/pexels-photo-12328370.jpeg?auto=compress\u0026cs=tinysrgb\u0026dpr=1\u0026fit=crop\u0026h=200\u0026w=280"},"liked":false,"alt":""},{"id":10406845,"width":2316,"height":3088,"url":"https://www.pexels.com/photo/brown-and-white-bird-wings-10406845/","photographer":"Nadi Lindsay","photographer_url":"https://www.pexels.com/@nadi-lindsay-1130679","photographer_id":1130679,"avg_color":"#8AA0AE","src":{"original":"https://images.pexels.com/photos/10406845/pexels-photo-10406845.jpeg","large2x":"https://images.pexels.com/photos/10406845/pexels-photo-10406845.jpeg?auto=compress\u0026cs=tinysrgb\u0026dpr=2\u0026h=650\u0026w=940","large":"https://images.pexels.com/photos/10406845/pexels-photo-10406845.jpeg?auto=compress\u0026cs=tinysrgb\u0026h=650\u0026w=940","medium":"https://images.pexels.com/photos/10406845/pexels-photo-10406845.jpeg?auto=compress\u0026cs=tinysrgb\u0026h=350","small":"https://images.pexels.com/photos/10406845/pexels-photo-10406845.jpeg?auto=compress\u0026cs=tinysrgb\u0026h=130","portrait":"https://images.pexels.com/photos/10406845/pexels-photo-10406845.jpeg?auto=compress\u0026cs=tinysrgb\u0026fit=crop\u0026h=1200\u0026w=800","landscape":"https://images.pexels.com/photos/10406845/pexels-photo-10406845.jpeg?auto=compress\u0026cs=tinysrgb\u0026fit=crop\u0026h=627\u0026w=1200","tiny":"https://images.pexels.com/photos/10406845/pexels-photo-10406845.jpeg?auto=compress\u0026cs=tinysrgb\u0026dpr=1\u0026fit=crop\u0026h=200\u0026w=280"},"liked":false,"alt":""},{"id":12244490,"width":5304,"height":7952,"url":"https://www.pexels.com/photo/woman-running-on-the-beach-12244490/","photographer":"Yana Moroz","photographer_url":"https://www.pexels.com/@yana-moroz-204165854","photographer_id":204165854,"avg_color":"#958472","src":{"original":"https://images.pexels.com/photos/12244490/pexels-photo-12244490.jpeg","large2x":"https://images.pexels.com/photos/12244490/pexels-photo-12244490.jpeg?auto=compress\u0026cs=tinysrgb\u0026dpr=2\u0026h=650\u0026w=940","large":"https://images.pexels.com/photos/12244490/pexels-photo-12244490.jpeg?auto=compress\u0026cs=tinysrgb\u0026h=650\u0026w=940","medium":"https://images.pexels.com/photos/12244490/pexels-photo-12244490.jpeg?auto=compress\u0026cs=tinysrgb\u0026h=350","small":"https://images.pexels.com/photos/12244490/pexels-photo-12244490.jpeg?auto=compress\u0026cs=tinysrgb\u0026h=130","portrait":"https://images.pexels.com/photos/12244490/pexels-photo-12244490.jpeg?auto=compress\u0026cs=tinysrgb\u0026fit=crop\u0026h=1200\u0026w=800","landscape":"https://images.pexels.com/photos/12244490/pexels-photo-12244490.jpeg?auto=compress\u0026cs=tinysrgb\u0026fit=crop\u0026h=627\u0026w=1200","tiny":"https://images.pexels.com/photos/12244490/pexels-photo-12244490.jpeg?auto=compress\u0026cs=tinysrgb\u0026dpr=1\u0026fit=crop\u0026h=200\u0026w=280"},"liked":false,"alt":""},{"id":12238175,"width":5584,"height":8368,"url":"https://www.pexels.com/photo/drums-in-old-town-12238175/","photographer":"Lina Kivaka","photographer_url":"https://www.pexels.com/@lina","photographer_id":593836,"avg_color":"#A0866D","src":{"original":"https://images.pexels.com/photos/12238175/pexels-photo-12238175.jpeg","large2x":"https://images.pexels.com/photos/12238175/pexels-photo-12238175.jpeg?auto=compress\u0026cs=tinysrgb\u0026dpr=2\u0026h=650\u0026w=940","large":"https://images.pexels.com/photos/12238175/pexels-photo-12238175.jpeg?auto=compress\u0026cs=tinysrgb\u0026h=650\u0026w=940","medium":"https://images.pexels.com/photos/12238175/pexels-photo-12238175.jpeg?auto=compress\u0026cs=tinysrgb\u0026h=350","small":"https://images.pexels.com/photos/12238175/pexels-photo-12238175.jpeg?auto=compress\u0026cs=tinysrgb\u0026h=130","portrait":"https://images.pexels.com/photos/12238175/pexels-photo-12238175.jpeg?auto=compress\u0026cs=tinysrgb\u0026fit=crop\u0026h=1200\u0026w=800","landscape":"https://images.pexels.com/photos/12238175/pexels-photo-12238175.jpeg?auto=compress\u0026cs=tinysrgb\u0026fit=crop\u0026h=627\u0026w=1200","tiny":"https://images.pexels.com/photos/12238175/pexels-photo-12238175.jpeg?auto=compress\u0026cs=tinysrgb\u0026dpr=1\u0026fit=crop\u0026h=200\u0026w=280"},"liked":false,"alt":"Brown and Black Drum Beside Brown Concrete Wall"},{"id":12211618,"width":3780,"height":6720,"url":"https://www.pexels.com/photo/portrait-of-handsome-man-with-stubble-12211618/","photographer":"Reza Kargar","photographer_url":"https://www.pexels.com/@idsreza","photographer_id":237271190,"avg_color":"#BCB5AF","src":{"original":"https://images.pexels.com/photos/12211618/pexels-photo-12211618.jpeg","large2x":"https://images.pexels.com/photos/12211618/pexels-photo-12211618.jpeg?auto=compress\u0026cs=tinysrgb\u0026dpr=2\u0026h=650\u0026w=940","large":"https://images.pexels.com/photos/12211618/pexels-photo-12211618.jpeg?auto=compress\u0026cs=tinysrgb\u0026h=650\u0026w=940","medium":"https://images.pexels.com/photos/12211618/pexels-photo-12211618.jpeg?auto=compress\u0026cs=tinysrgb\u0026h=350","small":"https://images.pexels.com/photos/12211618/pexels-photo-12211618.jpeg?auto=compress\u0026cs=tinysrgb\u0026h=130","portrait":"https://images.pexels.com/photos/12211618/pexels-photo-12211618.jpeg?auto=compress\u0026cs=tinysrgb\u0026fit=crop\u0026h=1200\u0026w=800","landscape":"https://images.pexels.com/photos/12211618/pexels-photo-12211618.jpeg?auto=compress\u0026cs=tinysrgb\u0026fit=crop\u0026h=627\u0026w=1200","tiny":"https://images.pexels.com/photos/12211618/pexels-photo-12211618.jpeg?auto=compress\u0026cs=tinysrgb\u0026dpr=1\u0026fit=crop\u0026h=200\u0026w=280"},"liked":false,"alt":"Portrait of Handsome Man With Stubble"},{"id":12212347,"width":4000,"height":5328,"url":"https://www.pexels.com/photo/photo-of-people-on-the-escalators-12212347/","photographer":"YIMING TANG","photographer_url":"https://www.pexels.com/@yiming-tang-145491639","photographer_id":145491639,"avg_color":"#BFA582","src":{"original":"https://images.pexels.com/photos/12212347/pexels-photo-12212347.jpeg","large2x":"https://images.pexels.com/photos/12212347/pexels-photo-12212347.jpeg?auto=compress\u0026cs=tinysrgb\u0026dpr=2\u0026h=650\u0026w=940","large":"https://images.pexels.com/photos/12212347/pexels-photo-12212347.jpeg?auto=compress\u0026cs=tinysrgb\u0026h=650\u0026w=940","medium":"https://images.pexels.com/photos/12212347/pexels-photo-12212347.jpeg?auto=compress\u0026cs=tinysrgb\u0026h=350","small":"https://images.pexels.com/photos/12212347/pexels-photo-12212347.jpeg?auto=compress\u0026cs=tinysrgb\u0026h=130","portrait":"https://images.pexels.com/photos/12212347/pexels-photo-12212347.jpeg?auto=compress\u0026cs=tinysrgb\u0026fit=crop\u0026h=1200\u0026w=800","landscape":"https://images.pexels.com/photos/12212347/pexels-photo-12212347.jpeg?auto=compress\u0026cs=tinysrgb\u0026fit=crop\u0026h=627\u0026w=1200","tiny":"https://images.pexels.com/photos/12212347/pexels-photo-12212347.jpeg?auto=compress\u0026cs=tinysrgb\u0026dpr=1\u0026fit=crop\u0026h=200\u0026w=280"},"liked":false,"alt":"Photo of People on the Escalators"},{"id":12203460,"width":2963,"height":4032,"url":"https://www.pexels.com/photo/flower-in-the-style-of-cyanotype-photography-12203460/","photographer":"Ekaterina","photographer_url":"https://www.pexels.com/@pit0chka","photographer_id":82253980,"avg_color":"#6DA5C8","src":{"original":"https://images.pexels.com/photos/12203460/pexels-photo-12203460.jpeg","large2x":"https://images.pexels.com/photos/12203460/pexels-photo-12203460.jpeg?auto=compress\u0026cs=tinysrgb\u0026dpr=2\u0026h=650\u0026w=940","large":"https://images.pexels.com/photos/12203460/pexels-photo-12203460.jpeg?auto=compress\u0026cs=tinysrgb\u0026h=650\u0026w=940","medium":"https://images.pexels.com/photos/12203460/pexels-photo-12203460.jpeg?auto=compress\u0026cs=tinysrgb\u0026h=350","small":"https://images.pexels.com/photos/12203460/pexels-photo-12203460.jpeg?auto=compress\u0026cs=tinysrgb\u0026h=130","portrait":"https://images.pexels.com/photos/12203460/pexels-photo-12203460.jpeg?auto=compress\u0026cs=tinysrgb\u0026fit=crop\u0026h=1200\u0026w=800","landscape":"https://images.pexels.com/photos/12203460/pexels-photo-12203460.jpeg?auto=compress\u0026cs=tinysrgb\u0026fit=crop\u0026h=627\u0026w=1200","tiny":"https://images.pexels.com/photos/12203460/pexels-photo-12203460.jpeg?auto=compress\u0026cs=tinysrgb\u0026dpr=1\u0026fit=crop\u0026h=200\u0026w=280"},"liked":false,"alt":"Brown and Black Maple Leaf"},{"id":12172012,"width":3798,"height":5696,"url":"https://www.pexels.com/photo/woman-lying-on-a-vintage-sofa-in-a-sequin-dress-12172012/","photographer":"Таня Поташева","photographer_url":"https://www.pexels.com/@75707425","photographer_id":75707425,"avg_color":"#7A6246","src":{"original":"https://images.pexels.com/photos/12172012/pexels-photo-12172012.jpeg","large2x":"https://images.pexels.com/photos/12172012/pexels-photo-12172012.jpeg?auto=compress\u0026cs=tinysrgb\u0026dpr=2\u0026h=650\u0026w=940","large":"https://images.pexels.com/photos/12172012/pexels-photo-12172012.jpeg?auto=compress\u0026cs=tinysrgb\u0026h=650\u0026w=940","medium":"https://images.pexels.com/photos/12172012/pexels-photo-12172012.jpeg?auto=compress\u0026cs=tinysrgb\u0026h=350","small":"https://images.pexels.com/photos/12172012/pexels-photo-12172012.jpeg?auto=compress\u0026cs=tinysrgb\u0026h=130","portrait":"https://images.pexels.com/photos/12172012/pexels-photo-12172012.jpeg?auto=compress\u0026cs=tinysrgb\u0026fit=crop\u0026h=1200\u0026w=800","landscape":"https://images.pexels.com/photos/12172012/pexels-photo-12172012.jpeg?auto=compress\u0026cs=tinysrgb\u0026fit=crop\u0026h=627\u0026w=1200","tiny":"https://images.pexels.com/photos/12172012/pexels-photo-12172012.jpeg?auto=compress\u0026cs=tinysrgb\u0026dpr=1\u0026fit=crop\u0026h=200\u0026w=280"},"liked":false,"alt":""},{"id":12168833,"width":3271,"height":4907,"url":"https://www.pexels.com/photo/man-on-balcony-12168833/","photographer":"Zeeshaan Shabbir","photographer_url":"https://www.pexels.com/@zeeshaanshabbir","photographer_id":1266323,"avg_color":"#7D7C82","src":{"original":"https://images.pexels.com/photos/12168833/pexels-photo-12168833.jpeg","large2x":"https://images.pexels.com/photos/12168833/pexels-photo-12168833.jpeg?auto=compress\u0026cs=tinysrgb\u0026dpr=2\u0026h=650\u0026w=940","large":"https://images.pexels.com/photos/12168833/pexels-photo-12168833.jpeg?auto=compress\u0026cs=tinysrgb\u0026h=650\u0026w=940","medium":"https://images.pexels.com/photos/12168833/pexels-photo-12168833.jpeg?auto=compress\u0026cs=tinysrgb\u0026h=350","small":"https://images.pexels.com/photos/12168833/pexels-photo-12168833.jpeg?auto=compress\u0026cs=tinysrgb\u0026h=130","portrait":"https://images.pexels.com/photos/12168833/pexels-photo-12168833.jpeg?auto=compress\u0026cs=tinysrgb\u0026fit=crop\u0026h=1200\u0026w=800","landscape":"https://images.pexels.com/photos/12168833/pexels-photo-12168833.jpeg?auto=compress\u0026cs=tinysrgb\u0026fit=crop\u0026h=627\u0026w=1200","tiny":"https://images.pexels.com/photos/12168833/pexels-photo-12168833.jpeg?auto=compress\u0026cs=tinysrgb\u0026dpr=1\u0026fit=crop\u0026h=200\u0026w=280"},"liked":false,"alt":"Woman in Blue Denim Jacket Standing Near Brown Wooden Fence"},{"id":12167579,"width":4000,"height":6000,"url":"https://www.pexels.com/photo/woman-standing-with-hands-in-her-pockets-12167579/","photographer":"Enrique Hoyos","photographer_url":"https://www.pexels.com/@enriquehoyos","photographer_id":1498112,"avg_color":"#A79F9D","src":{"original":"https://images.pexels.com/photos/12167579/pexels-photo-12167579.jpeg","large2x":"https://images.pexels.com/photos/12167579/pexels-photo-12167579.jpeg?auto=compress\u0026cs=tinysrgb\u0026dpr=2\u0026h=650\u0026w=940","large":"https://images.pexels.com/photos/12167579/pexels-photo-12167579.jpeg?auto=compress\u0026cs=tinysrgb\u0026h=650\u0026w=940","medium":"https://images.pexels.com/photos/12167579/pexels-photo-12167579.jpeg?auto=compress\u0026cs=tinysrgb\u0026h=350","small":"https://images.pexels.com/photos/12167579/pexels-photo-12167579.jpeg?auto=compress\u0026cs=tinysrgb\u0026h=130","portrait":"https://images.pexels.com/photos/12167579/pexels-photo-12167579.jpeg?auto=compress\u0026cs=tinysrgb\u0026fit=crop\u0026h=1200\u0026w=800","landscape":"https://images.pexels.com/photos/12167579/pexels-photo-12167579.jpeg?auto=compress\u0026cs=tinysrgb\u0026fit=crop\u0026h=627\u0026w=1200","tiny":"https://images.pexels.com/photos/12167579/pexels-photo-12167579.jpeg?auto=compress\u0026cs=tinysrgb\u0026dpr=1\u0026fit=crop\u0026h=200\u0026w=280"},"liked":false,"alt":"Woman in Blue Sleeveless Top and Black Skirt Standing Near Black Metal Fence"},{"id":12258266,"width":3637,"height":2433,"url":"https://www.pexels.com/photo/wood-landscape-sun-winter-12258266/","photographer":"Yaroslava Borz","photographer_url":"https://www.pexels.com/@yaroslava-borz-126286496","photographer_id":126286496,"avg_color":"#7D9297","src":{"original":"https://images.pexels.com/photos/12258266/pexels-photo-12258266.jpeg","large2x":"https://images.pexels.com/photos/12258266/pexels-photo-12258266.jpeg?auto=compress\u0026cs=tinysrgb\u0026dpr=2\u0026h=650\u0026w=940","large":"https://images.pexels.com/photos/12258266/pexels-photo-12258266.jpeg?auto=compress\u0026cs=tinysrgb\u0026h=650\u0026w=940","medium":"https://images.pexels.com/photos/12258266/pexels-photo-12258266.jpeg?auto=compress\u0026cs=tinysrgb\u0026h=350","small":"https://images.pexels.com/photos/12258266/pexels-photo-12258266.jpeg?auto=compress\u0026cs=tinysrgb\u0026h=130","portrait":"https://images.pexels.com/photos/12258266/pexels-photo-12258266.jpeg?auto=compress\u0026cs=tinysrgb\u0026fit=crop\u0026h=1200\u0026w=800","landscape":"https://images.pexels.com/photos/12258266/pexels-photo-12258266.jpeg?auto=compress\u0026cs=tinysrgb\u0026fit=crop\u0026h=627\u0026w=1200","tiny":"https://images.pexels.com/photos/12258266/pexels-photo-12258266.jpeg?auto=compress\u0026cs=tinysrgb\u0026dpr=1\u0026fit=crop\u0026h=200\u0026w=280"},"liked":false,"alt":""},{"id":12253368,"width":3264,"height":4080,"url":"https://www.pexels.com/photo/white-concrete-building-12253368/","photographer":"Stan Krotov","photographer_url":"https://www.pexels.com/@stan-krotov-191857762","photographer_id":191857762,"avg_color":"#443F39","src":{"original":"https://images.pexels.com/photos/12253368/pexels-photo-12253368.jpeg","large2x":"https://images.pexels.com/photos/12253368/pexels-photo-12253368.jpeg?auto=compress\u0026cs=tinysrgb\u0026dpr=2\u0026h=650\u0026w=940","large":"https://images.pexels.com/photos/12253368/pexels-photo-12253368.jpeg?auto=compress\u0026cs=tinysrgb\u0026h=650\u0026w=940","medium":"https://images.pexels.com/photos/12253368/pexels-photo-12253368.jpeg?auto=compress\u0026cs=tinysrgb\u0026h=350","small":"https://images.pexels.com/photos/12253368/pexels-photo-12253368.jpeg?auto=compress\u0026cs=tinysrgb\u0026h=130","portrait":"https://images.pexels.com/photos/12253368/pexels-photo-12253368.jpeg?auto=compress\u0026cs=tinysrgb\u0026fit=crop\u0026h=1200\u0026w=800","landscape":"https://images.pexels.com/photos/12253368/pexels-photo-12253368.jpeg?auto=compress\u0026cs=tinysrgb\u0026fit=crop\u0026h=627\u0026w=1200","tiny":"https://images.pexels.com/photos/12253368/pexels-photo-12253368.jpeg?auto=compress\u0026cs=tinysrgb\u0026dpr=1\u0026fit=crop\u0026h=200\u0026w=280"},"liked":false,"alt":"White Concrete Building"},{"id":12240136,"width":3637,"height":5459,"url":"https://www.pexels.com/photo/emeral-isle-12240136/","photographer":"Red Zeppelin","photographer_url":"https://www.pexels.com/@red-zeppelin","photographer_id":2551926,"avg_color":"#3A5230","src":{"original":"https://images.pexels.com/photos/12240136/pexels-photo-12240136.jpeg","large2x":"https://images.pexels.com/photos/12240136/pexels-photo-12240136.jpeg?auto=compress\u0026cs=tinysrgb\u0026dpr=2\u0026h=650\u0026w=940","large":"https://images.pexels.com/photos/12240136/pexels-photo-12240136.jpeg?auto=compress\u0026cs=tinysrgb\u0026h=650\u0026w=940","medium":"https://images.pexels.com/photos/12240136/pexels-photo-12240136.jpeg?auto=compress\u0026cs=tinysrgb\u0026h=350","small":"https://images.pexels.com/photos/12240136/pexels-photo-12240136.jpeg?auto=compress\u0026cs=tinysrgb\u0026h=130","portrait":"https://images.pexels.com/photos/12240136/pexels-photo-12240136.jpeg?auto=compress\u0026cs=tinysrgb\u0026fit=crop\u0026h=1200\u0026w=800","landscape":"https://images.pexels.com/photos/12240136/pexels-photo-12240136.jpeg?auto=compress\u0026cs=tinysrgb\u0026fit=crop\u0026h=627\u0026w=1200","tiny":"https://images.pexels.com/photos/12240136/pexels-photo-12240136.jpeg?auto=compress\u0026cs=tinysrgb\u0026dpr=1\u0026fit=crop\u0026h=200\u0026w=280"},"liked":false,"alt":"Emeral Isle"},{"id":12237096,"width":2240,"height":3360,"url":"https://www.pexels.com/photo/yellow-and-pink-flowers-on-gray-concrete-pot-12237096/","photographer":"Yelena Odintsova","photographer_url":"https://www.pexels.com/@yelenaodintsova","photographer_id":3068556,"avg_color":"#494637","src":{"original":"https://images.pexels.com/photos/12237096/pexels-photo-12237096.jpeg","large2x":"https://images.pexels.com/photos/12237096/pexels-photo-12237096.jpeg?auto=compress\u0026cs=tinysrgb\u0026dpr=2\u0026h=650\u0026w=940","large":"https://images.pexels.com/photos/12237096/pexels-photo-12237096.jpeg?auto=compress\u0026cs=tinysrgb\u0026h=650\u0026w=940","medium":"https://images.pexels.com/photos/12237096/pexels-photo-12237096.jpeg?auto=compress\u0026cs=tinysrgb\u0026h=350","small":"https://images.pexels.com/photos/12237096/pexels-photo-12237096.jpeg?auto=compress\u0026cs=tinysrgb\u0026h=130","portrait":"https://images.pexels.com/photos/12237096/pexels-photo-12237096.jpeg?auto=compress\u0026cs=tinysrgb\u0026fit=crop\u0026h=1200\u0026w=800","landscape":"https://images.pexels.com/photos/12237096/pexels-photo-12237096.jpeg?auto=compress\u0026cs=tinysrgb\u0026fit=crop\u0026h=627\u0026w=1200","tiny":"https://images.pexels.com/photos/12237096/pexels-photo-12237096.jpeg?auto=compress\u0026cs=tinysrgb\u0026dpr=1\u0026fit=crop\u0026h=200\u0026w=280"},"liked":false,"alt":"Yellow and Pink Flowers on Gray Concrete Pot"},{"id":12226848,"width":3670,"height":4587,"url":"https://www.pexels.com/photo/snow-covered-mountain-under-blue-sky-12226848/","photographer":"ICXOD","photographer_url":"https://www.pexels.com/@icxod-88110311","photographer_id":88110311,"avg_color":"#6A7378","src":{"original":"https://images.pexels.com/photos/12226848/pexels-photo-12226848.jpeg","large2x":"https://images.pexels.com/photos/12226848/pexels-photo-12226848.jpeg?auto=compress\u0026cs=tinysrgb\u0026dpr=2\u0026h=650\u0026w=940","large":"https://images.pexels.com/photos/12226848/pexels-photo-12226848.jpeg?auto=compress\u0026cs=tinysrgb\u0026h=650\u0026w=940","medium":"https://images.pexels.com/photos/12226848/pexels-photo-12226848.jpeg?auto=compress\u0026cs=tinysrgb\u0026h=350","small":"https://images.pexels.com/photos/12226848/pexels-photo-12226848.jpeg?auto=compress\u0026cs=tinysrgb\u0026h=130","portrait":"https://images.pexels.com/photos/12226848/pexels-photo-12226848.jpeg?auto=compress\u0026cs=tinysrgb\u0026fit=crop\u0026h=1200\u0026w=800","landscape":"https://images.pexels.com/photos/12226848/pexels-photo-12226848.jpeg?auto=compress\u0026cs=tinysrgb\u0026fit=crop\u0026h=627\u0026w=1200","tiny":"https://images.pexels.com/photos/12226848/pexels-photo-12226848.jpeg?auto=compress\u0026cs=tinysrgb\u0026dpr=1\u0026fit=crop\u0026h=200\u0026w=280"},"liked":false,"alt":"Snow Covered Mountain Under Blue Sky"}],"total_results":8000,"next_page":"https://api.pexels.com/v1/curated/?page=2\u0026per_page=15"}